"DOTAHeroes"
{
    "rpg_npc_dota_hero_priestess_of_sacred_forest"
    {
        "AbilityLayout"     "6"
        "override_hero"     "npc_dota_hero_enchantress"
        "Ability1"	"priestess_of_sacred_forest_herbaceous_essence"
        "Ability2"	"priestess_of_sacred_forest_thorny_protection"
        "Ability3"	"priestess_of_sacred_forest_twilight_breeze"
        "Ability4"	"priestess_of_sacred_forest_tranquility"
        "Ability5"	"empty5"
        "Ability6"	"empty6"
		"AbilityTalentStart"		"7"
        "Ability7"	""
        "Ability8"	""
        "Ability9"	""
        "Ability10"	""
        "Ability11"	""
        "Ability12"	""
        "Ability13"	""
        "Ability14"	""
        "Ability15"	""
        "Ability16"	""
        "Ability17"	""
		"ArmorPhysical"                "0"
		"MagicalResistance"            "0"
		"AttackDamageMin"            "34"       // Damage range min.
		"AttackDamageMax"            "34"       // Damage range max.
		"BountyXP"                    "0"            // Experience earn.
		"BountyGoldMin"                "0"           // Gold earned min.
		"BountyGoldMax"                "0"           // Gold earned max.
		"StatusHealthRegen"           "0"         // Health regeneration rate.
		"StatusManaRegen"             "0"         // Mana regeneration rate.
		"AttributePrimary"             "DOTA_ATTRIBUTE_INTELLECT"
		"AttributeBaseStrength"        "19"            // Base strength
		"AttributeStrengthGain"        "2.7"            // Strength bonus per level.
		"AttributeBaseAgility"         "22"            // Base agility
		"AttributeAgilityGain"         "2.4"            // Agility bonus per level.
		"AttributeBaseIntelligence"    "25"            // Base intelligence
		"AttributeIntelligenceGain"    "2.9"            // Intelligence bonus per level.
    }
}